Suite/Test/Step Name,Browser,Description,Start time,End time,Duration,Status
Export,Firefox 66.0,,2019-09-13 11:51:39,2019-09-13 11:53:23,1m - 43.744s,PASSED
,,,,,,
Test Cases/Export/Reg_040,Firefox 66.0,,2019-09-13 11:51:40,2019-09-13 11:53:23,1m - 43.329s,PASSED
"salesforcePages.loginPage_Salesforce.loginWithCredentials(appilationURL, username, password)",Firefox 66.0,,2019-09-13 11:51:40,2019-09-13 11:51:53,13.457s,PASSED
com.utilities.CommonPages_Salesforce.header_Salesforce.selectItemFromNavigationMenu(navigationMenuItem),Firefox 66.0,,2019-09-13 11:51:53,2019-09-13 11:52:28,34.674s,PASSED
salesforcePages.ReportsPage_SideFolderBar.clickOnAllReports(),Firefox 66.0,,2019-09-13 11:52:28,2019-09-13 11:52:28,0.357s,PASSED
salesforcePages.ReportsPage_Header.searchReport(reportName),Firefox 66.0,,2019-09-13 11:52:28,2019-09-13 11:52:32,3.258s,PASSED
salesforcePages.ReportsPage_Body.clickOnFirstReportDropDownButton(),Firefox 66.0,,2019-09-13 11:52:32,2019-09-13 11:52:34,2.305s,PASSED
salesforcePages.ReportsPage_Body.clickOnExportInDropDown(),Firefox 66.0,,2019-09-13 11:52:34,2019-09-13 11:52:36,2.373s,PASSED
salesforcePages.ReportsPage_Body.clickOnExportButtonInPopUp(),Firefox 66.0,,2019-09-13 11:52:36,2019-09-13 11:52:52,15.645s,PASSED
"salesforcePages.ReportsPage_Body.verifyExcelFileCreatedInLocalDriver(filePath, reportName)",Firefox 66.0,,2019-09-13 11:52:52,2019-09-13 11:53:02,10.056s,PASSED
Start listener action : sampleAfterTestCase,Firefox 66.0,,2019-09-13 11:53:02,2019-09-13 11:53:23,20.931s,PASSED
