Suite/Test/Step Name,Browser,Description,Start time,End time,Duration,Status
demoSample,Firefox 66.0,,2019-09-13 12:42:58,2019-09-13 12:44:20,1m - 22.085s,PASSED
,,,,,,
Test Cases/Export/Reg_040,Firefox 66.0,,2019-09-13 12:42:59,2019-09-13 12:44:20,1m - 21.714s,PASSED
"salesforcePages.loginPage_Salesforce.loginWithCredentials(appilationURL, username, password)",Firefox 66.0,,2019-09-13 12:42:59,2019-09-13 12:43:12,13.529s,PASSED
com.utilities.CommonPages_Salesforce.header_Salesforce.selectItemFromNavigationMenu(navigationMenuItem),Firefox 66.0,,2019-09-13 12:43:12,2019-09-13 12:43:24,12.120s,PASSED
salesforcePages.ReportsPage_SideFolderBar.clickOnAllReports(),Firefox 66.0,,2019-09-13 12:43:24,2019-09-13 12:43:25,0.968s,PASSED
salesforcePages.ReportsPage_Header.searchReport(reportName),Firefox 66.0,,2019-09-13 12:43:25,2019-09-13 12:43:29,3.252s,PASSED
salesforcePages.ReportsPage_Body.clickOnFirstReportDropDownButton(),Firefox 66.0,,2019-09-13 12:43:29,2019-09-13 12:43:31,2.312s,PASSED
salesforcePages.ReportsPage_Body.clickOnExportInDropDown(),Firefox 66.0,,2019-09-13 12:43:31,2019-09-13 12:43:33,2.429s,PASSED
salesforcePages.ReportsPage_Body.clickOnExportButtonInPopUp(),Firefox 66.0,,2019-09-13 12:43:33,2019-09-13 12:43:49,15.590s,PASSED
"salesforcePages.ReportsPage_Body.verifyExcelFileCreatedInLocalDriver(filePath, reportName)",Firefox 66.0,,2019-09-13 12:43:49,2019-09-13 12:43:59,10.043s,PASSED
Start listener action : sampleAfterTestCase,Firefox 66.0,,2019-09-13 12:43:59,2019-09-13 12:44:20,21.234s,PASSED
